<?xml version="1.0" encoding="UTF-8"?>
<session version="1.0">
<refactoring accessors="true" comment="Delete 1 element(s) from project &apos;Internal FTIS&apos;&#x0D;&#x0A;- Original project: &apos;Internal FTIS&apos;&#x0D;&#x0A;- Original element: &apos;.settings&apos;" description="Delete element" element1=".settings" elements="0" flags="589830" id="org.eclipse.wst.jsdt.ui.delete" resources="1" stamp="1498724553590" subPackages="false" version="1.0"/>
</session>