<?xml version="1.0" encoding="UTF-8"?>
<session version="1.0">
<refactoring accessors="true" comment="Delete 1 element(s) from project &apos;FTIS&apos;&#x0D;&#x0A;- Original project: &apos;FTIS&apos;&#x0D;&#x0A;- Original element: &apos;SO_Client_s1.js&apos;" description="Delete element" element1="S1/SO_Client_s1.js" elements="0" flags="589830" id="org.eclipse.wst.jsdt.ui.delete" resources="1" stamp="1513061384798" subPackages="false" version="1.0"/>
</session>