internalid,rate
357464,37.1446
357465,37.1446
357466,37.1446
357467,37.1446
357468,37.1446
357469,37.1446
357470,37.1446
357471,37.1446
357473,37.1446
357476,37.1446
357477,37.1446
357478,37.1446
357479,37.1446
357480,37.1446
357482,37.1446
357483,37.1446
357484,37.1446
357485,37.1446
357486,37.1446
357808,37.1446
357811,37.1446
358946,37.1446
358948,37.1446
359025,37.1446
359058,37.1446
359059,37.1446
359582,37.1446
359719,37.1446
359720,37.1446
359721,37.1446
359722,37.1446
359723,37.1446
359726,37.1446
359728,37.1446
359731,37.1446
359732,37.1446
359741,34.6144
359753,34.6144
359755,34.6144
360778,34.4682
360780,34.4682
359906,34.4682
360342,34.4682
360344,34.4682
360345,34.4682
360351,34.4682
360354,34.4682
360356,34.4682
360357,34.4682
360373,34.4682
360375,34.4682
360376,34.4682
360386,34.4682
360394,34.4682
360396,34.4682
360398,34.4682
360400,34.4682
360406,34.4682
360408,34.4682
360410,34.4682
360412,34.4682
360413,34.4682
360419,34.4682
360421,34.4682
360422,34.4682
360423,34.4682
360424,34.4682
360425,34.4682
360426,34.4682
360428,34.4682
360429,34.4682
360735,34.4682
360742,34.4682
360745,34.4682
360749,34.4682
360752,34.4682
360754,34.4682
360761,34.4682
360763,34.4682
360766,34.4682
360767,34.4682
360768,34.4682
360770,34.4682
360772,34.4682
360774,34.4682
360775,34.4682
360777,34.4682
360779,34.4682
361144,34.4682
361145,34.4682
361146,34.4682
361147,34.4682
361148,34.4682
361149,34.4682
361150,34.4682
361151,34.4682
361152,34.4682
361153,34.4682
361154,34.4682
361155,34.4682
361156,34.4682
361157,34.4682
361158,34.4682
361159,34.4682
361160,34.4682
361161,34.4682
361162,34.4682
361163,34.4682
361506,34.5545
361509,34.5545
361512,34.5545
361514,34.5545
361515,34.5545
361518,34.5545
361519,34.5545
361520,34.5545
361621,34.5545
361660,34.5545
361663,34.5545
362220,34.5545
362221,34.5545
362222,34.5545
362224,34.5545
362225,34.5545
362226,34.5545
362227,34.5545
362228,34.5545
362229,34.5545
362230,34.5545
362231,34.5545
362232,34.5545
362234,34.5545
362235,34.5545
362236,34.5545
362237,34.5545
362238,34.5545
362239,34.5545
362734,34.6579
362929,34.6579
362933,34.6579
362934,34.6579
362935,34.6579
362936,34.6579
362938,34.6579
362939,34.6579
362941,34.6579
362942,34.6579
362944,34.6579
362946,34.6579
362947,34.6579
362949,34.6579
362950,34.6579
362952,34.6579
364023,34.6579
364026,34.6579
364028,34.6579
364030,34.6579
364031,34.6579
364032,34.6579
364033,34.6579
365827,34.7647
365829,34.7647
365830,34.7647
365831,34.7647
365832,34.7647
365833,34.7647
365834,34.7647
365835,34.7647
365836,34.7647
365837,34.7647
365838,34.7647
365839,34.7647
365840,34.7647
365841,34.7647
365842,34.7647
365843,34.7647
365844,34.7647
365845,34.7647
365846,34.7647
365883,34.7647
365885,34.7647
365886,34.7647
365887,34.7647
365888,34.7647
365889,34.7647
365890,34.7647
366263,34.7647
366266,34.7647
366138,34.7647
366141,34.7647
366142,34.7647
366144,34.7647
366148,34.7647
366150,34.7647
366151,34.7647
366157,34.7647
366159,34.7647
366160,34.7647
366162,34.7647
366164,34.7647
366165,34.7647
366167,34.7647
366169,34.7647
366174,34.7647
366175,34.7647
366176,34.7647
366182,34.7647
366186,34.7647
366302,34.7647
366655,34.8023
366657,34.8023
366661,34.8023
366666,34.8023
366671,34.8023
366673,34.8023
366674,34.8023
366677,34.8023
366679,34.8023
366681,34.8023
366683,34.8023
366684,34.8023
366685,34.8023
366711,34.8023
366729,34.8023
366748,34.8023
366753,34.8023
366755,34.8023
366760,34.8023
366763,34.8023
366764,34.8023
366765,34.8023
366774,34.8023
366777,34.8023
366798,34.8023
367348,34.7543
367351,34.7543
367352,34.7543
367378,34.7543
367382,34.7543
367387,34.7543
367389,34.7543
367445,34.7543
368739,34.6954
368741,34.6954
368742,34.6954
368743,34.6954
368745,34.6954
368746,34.6954
368747,34.6954
368748,34.6954
368749,34.6954
368750,34.6954
368752,34.6954
368753,34.6954
368754,34.6954
368755,34.6954
368756,34.6954
368757,34.6954
368758,34.6954
368759,34.6954
368760,34.6954
368761,34.6954
368762,34.6954
368763,34.6954
368764,34.6954
368766,34.6954
368767,34.6954
368768,34.6954
368769,34.6954
368770,34.6954
368771,34.6954
368772,34.6954
368773,34.6954
368774,34.6954
368775,34.6954
368776,34.6954
369556,34.4563
368777,34.4563
368778,34.4563
368779,34.4563
368780,34.4563
368789,34.4563
368791,34.4563
368792,34.4563
368793,34.4563
368794,34.4563
368795,34.4563
368797,34.4563
368826,34.4563
368827,34.4563
368828,34.4563
368830,34.4563
368831,34.4563
368833,34.4563
368834,34.4563
368835,34.4563
368836,34.4563
368837,34.4563
368838,34.4563
368839,34.4563
368843,34.4563
368844,34.4563
368846,34.4563
368847,34.4563
368848,34.4563
368849,34.4563
368850,34.4563
368852,34.4563
368853,34.4563
368856,34.4563
368857,34.4563
368858,34.4563
368859,34.4563
368860,34.4563
368863,34.4563
368864,34.4563
368865,34.4563
368866,34.4563
368867,34.4563
368868,34.4563
368873,34.4563
368877,34.4563
368878,34.4563
368879,34.4563
368885,34.4563
369631,34.4563
369633,34.4563
369634,34.4563
369636,34.4563
369639,34.4563
369640,34.4563
369642,34.4563
369643,34.4563
369644,34.4563
369645,34.4563
369646,34.4563
369647,34.4563
369649,34.4563
369651,34.4563
369652,34.4563
369655,34.4563
369657,34.4563
369702,34.5515
369706,34.5515
369708,34.5515
369709,34.5515
369711,34.5515
369716,34.5515
369717,34.5515
369762,34.5515
369765,34.5515
369766,34.5515
369768,34.5515
369769,34.5515
369771,34.5515
369773,34.5515
369774,34.5515
369791,34.5515
370614,34.5515
370616,34.5515
370617,34.5515
370618,34.5515
370619,34.5515
370620,34.5515
370621,34.5515
370622,34.5515
370628,34.5515
370631,34.5515
370833,34.4899
370834,34.4899
371021,34.4899
371023,34.4899
371026,34.4899
371028,34.4899
371029,34.4899
371030,34.4899
371031,34.4899
371032,34.4899
371033,34.4899
371034,34.4899
371035,34.4899
371037,34.4899
371038,34.4899
371043,34.4899
371045,34.4899
371046,34.4899
371147,34.4899
371148,34.4899
371151,34.4899
371677,34.4899
371687,34.4899
371691,34.4899
371696,34.4899
371698,34.4899
371699,34.4899
371702,34.4899
371706,34.4899
371709,34.4899
371713,34.4899
371720,34.4899
371728,34.4899
371733,34.4899
371736,34.4899
371742,34.4899
371747,34.4899
371751,34.4899
372007,34.4899
372012,34.4899
372031,34.4899
372052,34.5429
372054,34.5429
372068,34.5429
372069,34.5429
372071,34.5429
372072,34.5429
372073,34.5429
372074,34.5429
372075,34.5429
372076,34.5429
372418,34.5429
372425,34.5429
372426,34.5429
372427,34.5429
372428,34.5429
372429,34.5429
372530,34.5429
372531,34.5429
372633,34.5429
372639,34.5429
372640,34.5429
372642,34.5429
372643,34.5429
372645,34.5429
372646,34.5429
372648,34.5429
372657,34.5429
372658,34.5429
372822,34.5429
372823,34.5429
372824,34.5429
372825,34.5429
372846,34.5429
372847,34.5429
372848,34.5429
372850,34.5429
372851,34.5429
372852,34.5429
372854,34.5429
372855,34.5429
372856,34.5429
372859,34.5429
372863,34.5429
372864,34.5429
372865,34.5429
372867,34.5429
372868,34.5429
372870,34.5429
372871,34.5429
372872,34.5429
372887,34.5429
372889,34.5429
372890,34.5429
372891,34.5429
372892,34.5429
372893,34.5429
372907,34.585
372908,34.585
372909,34.585
372910,34.585
372911,34.585
372912,34.585
372913,34.585
372914,34.585
372915,34.585
372916,34.585
372917,34.585
372918,34.585
372919,34.585
372920,34.585
372921,34.585
372922,34.585
372988,34.585
372989,34.585
372990,34.585
372991,34.585
372992,34.585
372993,34.585
372997,34.585
372998,34.585
372999,34.585
373000,34.585
373001,34.585
373036,34.585
373078,34.585
373080,34.585
373083,34.585
373084,34.585
373393,34.585
373394,34.585
373395,34.585
373555,34.585
373559,34.585
373564,34.585
373569,34.585
373895,34.585
373941,34.585
373948,34.585
373965,34.585
373968,34.585
373990,34.585
373991,34.585
373992,34.585
373993,34.585
373994,34.585
373995,34.585
373996,34.585
373997,34.585
374381,34.5243
374388,34.5243
374391,34.5243
374392,34.5243
374393,34.5243
374395,34.5243
374396,34.5243
374398,34.5243
374399,34.5243
374501,34.5243
374502,34.5243
374504,34.5243
374509,34.5243
374510,34.5243
374512,34.5243
374515,34.5243
374517,34.5243
374520,34.5243
374523,34.5243
374525,34.5243
374529,34.5243
374533,34.5243
374536,34.5243
374538,34.5243
374542,34.5243
374543,34.5243
374546,34.5243
374547,34.5243
374548,34.5243
374551,34.5243
374553,34.5243
374554,34.5243
374558,34.5243
374664,34.5243
374671,34.5243
374674,34.5243
374675,34.5243
374678,34.5243
374683,34.5243
374866,34.5243
374868,34.5243
374869,34.5243
374871,34.5243
375126,34.5368
375127,34.5368
375207,34.5368
375211,34.5368
375212,34.5368
375214,34.5368
375220,34.5368
375221,34.5368
375222,34.5368
375223,34.5368
375224,34.5368
375225,34.5368
375228,34.5368
375231,34.5368
375232,34.5368
375235,34.5368
375240,34.5368
375241,34.5368
375244,34.5368
375245,34.5368
376029,34.5368
376033,34.5368
376034,34.5368
376035,34.5368
376036,34.5368
376037,34.5368
376039,34.5368
376040,34.5368
376041,34.5368
376043,34.5368
376044,34.5368
376045,34.5368
376046,34.5368
376047,34.5368
376048,34.5368
376606,34.593
376608,34.593
376611,34.593
376618,34.593
376621,34.593
376622,34.593
376623,34.593
376625,34.593
376627,34.593
376628,34.593
376629,34.593
376632,34.593
377083,34.593
377291,34.593
377294,34.593
377298,34.593
377300,34.593
377302,34.593
377303,34.593
377306,34.593
377309,34.593
377311,34.593
377416,34.593
377420,34.593
377422,34.593
377432,34.593
377450,34.593
377546,34.593
377553,34.593
377554,34.593
377654,34.593
377656,34.593
377657,34.593
378321,34.6587
378327,34.6587
378329,34.6587
378661,34.6587
378663,34.6587
378762,34.7852
378764,34.7852
378765,34.7852
378770,34.7852
378772,34.7852
378774,34.7852
378775,34.7852
380489,34.7852
380493,34.7852
380494,34.7852
380495,34.7852
380496,34.7852
380497,34.7852
380498,34.7852
380499,34.7852
380500,34.7852
380501,34.7852
380502,34.7852
380504,34.7852
380505,34.7852
380506,34.7852
380507,34.7852
380508,34.7852
380509,34.7852
380510,34.7852
380535,34.7099
380556,34.7099
380865,34.7099
380884,34.7099
380886,34.7099
380889,34.7099
380894,34.7099
380895,34.7099
380896,34.7099
380897,34.7099
380898,34.7099
380900,34.7099
381001,34.7099
381005,34.7099
381007,34.7099
381009,34.7099
381010,34.7099
381012,34.7099
381113,34.7099
381114,34.7099
381115,34.7099
381234,34.7099
381240,34.7099
381241,34.7099
381243,34.7099
381247,34.7099
382419,34.6112
381380,34.6112
381392,34.6112
381393,34.6112
381400,34.6112
381401,34.6112
381402,34.6112
381403,34.6112
381407,34.6112
381409,34.6112
381411,34.6112
381413,34.6112
381690,34.6112
381695,34.6112
381698,34.6112
381699,34.6112
381701,34.6112
381704,34.6112
381707,34.6112
381712,34.6112
381713,34.6112
381716,34.6112
381717,34.6112
381718,34.6112
381722,34.6112
381731,34.6112
381734,34.6112
381736,34.6112
381737,34.6112
381738,34.6112
381739,34.6112
381771,34.6112
381775,34.6112
381776,34.6112
382288,34.6112
382290,34.6112
382312,34.6112
382313,34.6112
382314,34.6112
382341,34.6112
382344,34.6112
382348,34.6112
382358,34.6112
382470,34.7503
382472,34.7503
382732,34.7503
382986,34.7503
383095,34.7503
383096,34.7503
383097,34.7503
383099,34.7503
383102,34.7503
383110,34.7503
383113,34.7503
383117,34.7503
383123,34.7503
383128,34.7503
383131,34.7503
383133,34.7503
383135,34.7503
383191,34.7503
383192,34.7503
383196,34.7503
383198,34.7503
383199,34.7503
383204,34.7503
383207,34.7503
383208,34.7503
383310,34.7503
383313,34.7503
383315,34.7503
383317,34.7503
383320,34.7503
383361,34.7503
383364,34.7503
383366,34.7503
383367,34.7503
383369,34.7503
383371,34.7503
383372,34.7503
383373,34.7503
383380,34.7503
383382,34.7503
383383,34.7503
383388,34.7503
383409,34.7739
383411,34.7739
383412,34.7739
383413,34.7739
383414,34.7739
383415,34.7739
383416,34.7739
383417,34.7739
383418,34.7739
383419,34.7739
383421,34.7739
383422,34.7739
383424,34.7739
383425,34.7739
383426,34.7739
383427,34.7739
383428,34.7739
383457,34.7739
383459,34.7739
383460,34.7739
383462,34.7739
383464,34.7739
383466,34.7739
383469,34.7739
383470,34.7739
383471,34.7739
383472,34.7739
383473,34.7739
383475,34.7739
383476,34.7739
383477,34.7739
383478,34.7739
383479,34.7739
383480,34.7739
383499,34.7739
383500,34.7739
383501,34.7739
383502,34.7739
383503,34.7739
383504,34.7739
383508,34.7739
383510,34.7739
384681,34.7739
384038,34.7739
384041,34.7739
384044,34.7739
384046,34.7739
384131,34.7739
384234,34.7739
384240,34.7739
384247,34.7739
384250,34.7739
384648,34.7739
384651,34.7739
384683,34.7739
384684,34.7739
384710,34.7739
384725,34.7739
384728,34.7739
384729,34.7739
384730,34.7739
384731,34.7739
384732,34.7739
384733,34.7739
384734,34.7739
384736,34.7739
384737,34.7739
384738,34.7739
384739,34.7739
384741,34.7739
384742,34.7739
384743,34.7739
385487,34.8253
385490,34.8253
385504,34.8253
385508,34.8253
385510,34.8253
385651,34.8253
385652,34.8253
385653,34.8253
385663,34.8253
385666,34.8253
385669,34.8253
385672,34.8253
385674,34.8253
385680,34.8253
385682,34.8253
385685,34.8253
385689,34.8253
385706,34.8253
385709,34.8253
385713,34.8253
385719,34.8253
385721,34.8253
385724,34.8253
385725,34.8253
385728,34.8253
385729,34.8253
385731,34.8253
385757,34.8253
385758,34.8253
385762,34.8253
385763,34.8253
385890,34.8528
385893,34.8528
385895,34.8528
386148,34.8528
386150,34.8528
386151,34.8528
386152,34.8528
386153,34.8528
386254,34.8528
386255,34.8528
386256,34.8528
386257,34.8528
386258,34.8528
386259,34.8528
386260,34.8528
386261,34.8528
386263,34.8528
386264,34.8528
386265,34.8528
386266,34.8528
386267,34.8528
386483,34.8528
386484,34.8528
386486,34.8528
386487,34.8528
386490,34.8528
386491,34.8528
386492,34.8528
386493,34.8528
386494,34.8528
386495,34.8528
386496,34.8528
386498,34.8528
386499,34.8528
386500,34.8528
386501,34.8528
386502,34.8528
386503,34.8528
386504,34.8528
386505,34.8528
386507,34.8528
386667,34.8528
386671,34.8528
386672,34.8528
386673,34.8528
386677,34.8528
386678,34.8528
387140,34.8528
387142,34.8528
387143,34.8528
387145,34.8528
387146,34.8528
387149,34.8528
387153,34.8528
387157,34.8528
387158,34.8528
387159,34.8528
387161,34.8528
387162,34.8528
387164,34.8528
387705,34.8528
387706,34.8528
387707,34.8528
387708,34.8528
387709,34.8528
387710,34.8528
387711,34.8528
387712,34.8528
387713,34.8528
387714,34.8528
387735,34.9575
387737,34.9575
388423,34.9575
388424,34.9575
388426,34.9575
388428,34.9575
388432,34.9575
388436,34.9575
388442,34.9575
388446,34.9575
388453,34.9575
388454,34.9575
388672,34.9575
388673,34.9575
388674,34.9575
388680,34.9575
388685,34.9575
388689,34.9575
388690,34.9575
388935,34.9575
388936,34.9575
388938,34.9575
388940,34.9575
388941,34.9575
388942,34.9575
388943,34.9575
388944,34.9575
388945,34.9575
388946,34.9575
388948,34.9575
388950,34.9575
388951,34.9575
388952,34.9575
388953,34.9575
388954,34.9575
388955,34.9575
389016,34.8885
389017,34.8885
389018,34.8885
389019,34.8885
389020,34.8885
389021,34.8885
389022,34.8885
389023,34.8885
389024,34.8885
389025,34.8885
389026,34.8885
389027,34.8885
389028,34.8885
389029,34.8885
389030,34.8885
389031,34.8885
389032,34.8885
389136,34.8885
389137,34.8885
389138,34.8885
389139,34.8885
389140,34.8885
389141,34.8885
389143,34.8885
389145,34.8885
389146,34.8885
389147,34.8885
389148,34.8885
389149,34.8885
389150,34.8885
389151,34.8885
389152,34.8885
389652,34.8885
390082,34.8885
390085,34.8885
390087,34.8885
390089,34.8885
390094,34.8885
390100,34.8885
390103,34.8885
390106,34.8885
390108,34.8885
390109,34.8885
390110,34.8885
390112,34.8885
390113,34.8885
390114,34.8885
390115,34.8885
390116,34.8885
390117,34.8885
390120,34.8885
390123,34.8885
390218,34.8885
390220,34.8885
390221,34.8885
390222,34.8885
390223,34.8885
390224,34.8885
390225,34.8885
390227,34.8885
390229,34.8885
390230,34.8885
390231,34.8885
390232,34.8885
390233,34.8885
390234,34.8885
390235,34.8885
390236,34.8885
390237,34.8885
390238,34.8885
390240,34.8885
390241,34.8885
390538,34.7891
390539,34.7891
390540,34.7891
390541,34.7891
390542,34.7891
390543,34.7891
390544,34.7891
390545,34.7891
390547,34.7891
390548,34.7891
390549,34.7891
390550,34.7891
390553,34.7891
390554,34.7891
390556,34.7891
390557,34.7891
390558,34.7891
390560,34.7891
390563,34.7891
391106,34.7891
391107,34.7891
391108,34.7891
391109,34.7891
391110,34.7891
391111,34.7891
391112,34.7891
391113,34.7891
391114,34.7891
391115,34.7891
391117,34.7891
391118,34.7891
391119,34.7891
391120,34.7891
391121,34.7891
391122,34.7891
391123,34.7891
391125,34.7891
391126,34.7891
391128,34.7891
391130,34.7891
391131,34.7891
391132,34.7891
391133,34.7891
391134,34.7891
391135,34.7891
391136,34.7891
391137,34.7891
391138,34.7891
391139,34.7891
391140,34.7891
391141,34.7891
391142,34.7891
391143,34.7891
391144,34.7891
391147,34.7891
391148,34.6497
391149,34.6497
391150,34.6497
391151,34.6497
391152,34.6497
391154,34.6497
391155,34.6497
391158,34.6497
391159,34.6497
391160,34.6497
391161,34.6497
391162,34.6497
391163,34.6497
391164,34.6497
391165,34.6497
391166,34.6497
391167,34.6497
391168,34.6497
391169,34.6497
391170,34.6497
391171,34.6497
391172,34.6497
391174,34.6497
391175,34.6497
391484,34.6497
391486,34.6497
391487,34.6497
391490,34.6497
391492,34.6497
391493,34.6497
391494,34.6497
391497,34.6497
391500,34.6497
391501,34.6497
391504,34.6497
391507,34.6497
391509,34.6497
391512,34.6497
391513,34.6497
391515,34.6497
391517,34.6497
391519,34.6497
391521,34.6497
391524,34.6497
391525,34.6497
391528,34.6497
391662,34.6497
392564,34.6472
392568,34.6472
393444,34.6472
393446,34.6472
393447,34.6472
393448,34.6472
393449,34.6472
393451,34.6472
393452,34.6472
393554,34.6472
393556,34.6472
393558,34.6472
393661,34.6472
393762,34.6472
393763,34.6472
393764,34.6472
393765,34.6472
393769,34.6472
393772,34.6472
393773,34.6472
393776,34.6472
393778,34.6472
393779,34.6472
393882,34.6472
393883,34.6472
393884,34.6472
393990,34.6472
394094,34.6472
394096,34.6472
394532,34.6472
394651,34.6472
394652,34.6472
394731,34.6472
394732,34.6472
394884,34.6472
394885,34.6472
394886,34.6472
394887,34.6472
394888,34.6472
394889,34.6472
394890,34.6472
394891,34.6472
394892,34.6472
394894,34.6472
394895,34.6472
394897,34.6472
394900,34.6472
394903,34.6472
394904,34.6472
394905,34.6677
394906,34.6677
394907,34.6677
394908,34.6677
394909,34.6677
394910,34.6677
394911,34.6677
394912,34.6677
394913,34.6677
394914,34.6677
394915,34.6677
394916,34.6677
394918,34.6677
394919,34.6677
394924,34.6677
394925,34.6677
394926,34.6677
394927,34.6677
394928,34.6677
394929,34.6677
394930,34.6677
394931,34.6677
394932,34.6677
394933,34.6677
394934,34.6677
394935,34.6677
394937,34.6677
394938,34.6677
394939,34.6677
394940,34.6677
394941,34.6677
394942,34.6677
394943,34.6677
394945,34.6677
394946,34.6677
394947,34.6677
394948,34.6677
394949,34.6677
394950,34.6677
394951,34.6677
394952,34.6677
394953,34.6677
394954,34.6677
394955,34.6677
394957,34.6677
394958,34.6677
394959,34.6677
394960,34.6677
394961,34.6677
395852,34.6677
395852,34.6677
395852,34.6677
395852,34.6677
395852,34.6677
395852,34.6677
395852,34.6677
395852,34.6677
395852,34.6677
395852,34.6677
395852,34.6677
395852,34.6677
395852,34.6677
395852,34.6677
395852,34.6677
395852,34.6677
395852,34.6677
395852,34.6677
395852,34.6677
395852,34.6677
395852,34.6677
395852,34.6677
395852,34.6677
395852,34.6677
395852,34.6677
395852,34.6677
395852,34.6677
395852,34.6677
395852,34.6677
395852,34.6677
395852,34.6677
395852,34.6677
395852,34.6677
395852,34.6677
395852,34.6677
395852,34.6677
395852,34.6677
395852,34.6677
395852,34.6677
395852,34.6677
395852,34.6677
395852,34.6677
395852,34.6677
395852,34.6677
395852,34.6677
395852,34.6677
395852,34.6677
395852,34.6677
395852,34.6677
395852,34.6677
395852,34.6677
395852,34.6677
395852,34.6677
395852,34.6677
395852,34.6677
395852,34.6677
395852,34.6677
395852,34.6677
395852,34.6677
395852,34.6677
395852,34.6677
395852,34.6677
395852,34.6677
395852,34.6677
395852,34.6677
395852,34.6677
395852,34.6677
395852,34.6677
395852,34.6677
395852,34.6677
395852,34.6677
395852,34.6677
395852,34.6677
395852,34.6677
395852,34.6677
395852,34.6677
395852,34.6677
395852,34.6677
395852,34.6677
395852,34.6677
395852,34.6677
395852,34.6677
395852,34.6677
395852,34.6677
395852,34.6677
395852,34.6677
395852,34.6677
395852,34.6677
395852,34.6677
395852,34.6677
395852,34.6677
