Internal ID,rate
357464,37.1446
357465,37.1446
357466,37.1446
357467,37.1446
357468,37.1446
357469,37.1446
357470,37.1446
357471,37.1446
357473,37.1446
357476,37.1446
357477,37.1446
357478,37.1446
357479,37.1446
357480,37.1446
357482,37.1446
357483,37.1446
357484,37.1446
357485,37.1446
357486,37.1446
357808,37.1446
357811,37.1446
359019,37.1446
358946,37.1446
358948,37.1446
359025,37.1446
359058,37.1446
359059,37.1446
359582,37.1446
359719,37.1446
359720,37.1446
359721,37.1446
359722,37.1446
359723,37.1446
359726,37.1446
359728,37.1446
359731,37.1446
359732,37.1446
359734,34.6144
359736,34.6144
359737,34.6144
359738,34.6144
359739,34.6144
359740,34.6144
359741,34.6144
359744,34.6144
359747,34.6144
359748,34.6144
359749,34.6144
359750,34.6144
359751,34.6144
359753,34.6144
359754,34.6144
359755,34.6144
359756,34.6144
359757,34.6144
359758,34.6144
359760,34.6144
360778,34.4682
360780,34.4682
359761,34.4682
359884,34.4682
359885,34.4682
359888,34.4682
359889,34.4682
359892,34.4682
359894,34.4682
359895,34.4682
359898,34.4682
359899,34.4682
359900,34.4682
359901,34.4682
359902,34.4682
359903,34.4682
359904,34.4682
359905,34.4682
359906,34.4682
359907,34.4682
359908,34.4682
359909,34.4682
359910,34.4682
360341,34.4682
360342,34.4682
360343,34.4682
360344,34.4682
360345,34.4682
360346,34.4682
360347,34.4682
360348,34.4682
360349,34.4682
360350,34.4682
360351,34.4682
360353,34.4682
360354,34.4682
360356,34.4682
360357,34.4682
360360,34.4682
360361,34.4682
360362,34.4682
360363,34.4682
360365,34.4682
360371,34.4682
360373,34.4682
360375,34.4682
360376,34.4682
360383,34.4682
360385,34.4682
360386,34.4682
360388,34.4682
360391,34.4682
360392,34.4682
360393,34.4682
360394,34.4682
360395,34.4682
360396,34.4682
360398,34.4682
360400,34.4682
360402,34.4682
360403,34.4682
360404,34.4682
360406,34.4682
360408,34.4682
360409,34.4682
360410,34.4682
360411,34.4682
360412,34.4682
360413,34.4682
360414,34.4682
360415,34.4682
360417,34.4682
360418,34.4682
360419,34.4682
360420,34.4682
360421,34.4682
360422,34.4682
360423,34.4682
360424,34.4682
360425,34.4682
360426,34.4682
360428,34.4682
360429,34.4682
360431,34.4682
360731,34.4682
360733,34.4682
360735,34.4682
360739,34.4682
360742,34.4682
360745,34.4682
360749,34.4682
360752,34.4682
360754,34.4682
360761,34.4682
360763,34.4682
360766,34.4682
360767,34.4682
360768,34.4682
360770,34.4682
360772,34.4682
360774,34.4682
360775,34.4682
360777,34.4682
360779,34.4682
361113,34.4682
361114,34.4682
361115,34.4682
361144,34.4682
361145,34.4682
361146,34.4682
361147,34.4682
361148,34.4682
361149,34.4682
361150,34.4682
361151,34.4682
361152,34.4682
361153,34.4682
361154,34.4682
361155,34.4682
361156,34.4682
361157,34.4682
361158,34.4682
361159,34.4682
361160,34.4682
361161,34.4682
361162,34.4682
361163,34.4682
361179,34.5545
361180,34.5545
361181,34.5545
361182,34.5545
361183,34.5545
361184,34.5545
361185,34.5545
361186,34.5545
361187,34.5545
361188,34.5545
361189,34.5545
361190,34.5545
361191,34.5545
361380,34.5545
361505,34.5545
361506,34.5545
361509,34.5545
361512,34.5545
361514,34.5545
361515,34.5545
361518,34.5545
361519,34.5545
361520,34.5545
361621,34.5545
361623,34.5545
361625,34.5545
361626,34.5545
361660,34.5545
361663,34.5545
361692,34.5545
361693,34.5545
362140,34.5545
362142,34.5545
362144,34.5545
362148,34.5545
362150,34.5545
362152,34.5545
362153,34.5545
362219,34.5545
362220,34.5545
362221,34.5545
362222,34.5545
362224,34.5545
362225,34.5545
362226,34.5545
362227,34.5545
362228,34.5545
362229,34.5545
362230,34.5545
362231,34.5545
362232,34.5545
362234,34.5545
362235,34.5545
362236,34.5545
362237,34.5545
362238,34.5545
362239,34.5545
362428,34.6579
362729,34.6579
362731,34.6579
362734,34.6579
362925,34.6579
362927,34.6579
362929,34.6579
362932,34.6579
362933,34.6579
362934,34.6579
362935,34.6579
362936,34.6579
362938,34.6579
362939,34.6579
362941,34.6579
362942,34.6579
362944,34.6579
362946,34.6579
362947,34.6579
362948,34.6579
362949,34.6579
362950,34.6579
362952,34.6579
362955,34.6579
362957,34.6579
362960,34.6579
362962,34.6579
363284,34.6579
363286,34.6579
363289,34.6579
363290,34.6579
364023,34.6579
364026,34.6579
364027,34.6579
364028,34.6579
364030,34.6579
364031,34.6579
364032,34.6579
364033,34.6579
364034,34.6579
364035,34.6579
365811,34.7647
365812,34.7647
365813,34.7647
365814,34.7647
365815,34.7647
365817,34.7647
365819,34.7647
365821,34.7647
365822,34.7647
365823,34.7647
365824,34.7647
365827,34.7647
365828,34.7647
365829,34.7647
365830,34.7647
365831,34.7647
365832,34.7647
365833,34.7647
365834,34.7647
365835,34.7647
365836,34.7647
365837,34.7647
365838,34.7647
365839,34.7647
365840,34.7647
365841,34.7647
365842,34.7647
365843,34.7647
365844,34.7647
365845,34.7647
365846,34.7647
365881,34.7647
365882,34.7647
365883,34.7647
365884,34.7647
365885,34.7647
365886,34.7647
365887,34.7647
365888,34.7647
365889,34.7647
365890,34.7647
366263,34.7647
366266,34.7647
365977,34.7647
365979,34.7647
366138,34.7647
366140,34.7647
366141,34.7647
366142,34.7647
366144,34.7647
366146,34.7647
366148,34.7647
366150,34.7647
366151,34.7647
366154,34.7647
366155,34.7647
366156,34.7647
366157,34.7647
366159,34.7647
366160,34.7647
366162,34.7647
366164,34.7647
366165,34.7647
366167,34.7647
366169,34.7647
366174,34.7647
366175,34.7647
366176,34.7647
366178,34.7647
366182,34.7647
366186,34.7647
366259,34.7647
366261,34.7647
366268,34.7647
366269,34.7647
366270,34.7647
366271,34.7647
366272,34.7647
366274,34.7647
366276,34.7647
366277,34.7647
366278,34.7647
366279,34.7647
366280,34.7647
366282,34.7647
366283,34.7647
366284,34.7647
366285,34.7647
366286,34.7647
366287,34.7647
366288,34.7647
366289,34.7647
366290,34.7647
366291,34.7647
366292,34.7647
366293,34.7647
366294,34.7647
366295,34.7647
366296,34.7647
366297,34.7647
366298,34.7647
366300,34.7647
366302,34.7647
366303,34.7647
366304,34.7647
366305,34.7647
366306,34.7647
366307,34.7647
366308,34.7647
366309,34.7647
366311,34.7647
366313,34.7647
366315,34.7647
366316,34.7647
366317,34.7647
366318,34.7647
366319,34.7647
366320,34.7647
366321,34.7647
366323,34.7647
366654,34.8023
366655,34.8023
366657,34.8023
366660,34.8023
366661,34.8023
366663,34.8023
366666,34.8023
366670,34.8023
366671,34.8023
366673,34.8023
366674,34.8023
366675,34.8023
366677,34.8023
366679,34.8023
366681,34.8023
366682,34.8023
366683,34.8023
366684,34.8023
366685,34.8023
366711,34.8023
366716,34.8023
366717,34.8023
366718,34.8023
366719,34.8023
366720,34.8023
366721,34.8023
366722,34.8023
366723,34.8023
366725,34.8023
366726,34.8023
366727,34.8023
366729,34.8023
366732,34.8023
366744,34.8023
366746,34.8023
366748,34.8023
366752,34.8023
366753,34.8023
366755,34.8023
366757,34.8023
366760,34.8023
366763,34.8023
366764,34.8023
366765,34.8023
366768,34.8023
366770,34.8023
366771,34.8023
366772,34.8023
366774,34.8023
366777,34.8023
366798,34.8023
366802,34.8023
367329,34.7543
367330,34.7543
367332,34.7543
367334,34.7543
367337,34.7543
367338,34.7543
367339,34.7543
367341,34.7543
367342,34.7543
367344,34.7543
367345,34.7543
367348,34.7543
367349,34.7543
367351,34.7543
367352,34.7543
367354,34.7543
367359,34.7543
367361,34.7543
367362,34.7543
367363,34.7543
367364,34.7543
367370,34.7543
367374,34.7543
367376,34.7543
367378,34.7543
367382,34.7543
367387,34.7543
367389,34.7543
367400,34.7543
367404,34.7543
367407,34.7543
367412,34.7543
367418,34.7543
367434,34.7543
367435,34.7543
367441,34.7543
367445,34.7543
367451,34.7543
367455,34.7543
367457,34.7543
368049,34.6954
368738,34.6954
368739,34.6954
368740,34.6954
368741,34.6954
368742,34.6954
368743,34.6954
368745,34.6954
368746,34.6954
368747,34.6954
368748,34.6954
368749,34.6954
368750,34.6954
368752,34.6954
368753,34.6954
368754,34.6954
368755,34.6954
368756,34.6954
368757,34.6954
368758,34.6954
368759,34.6954
368760,34.6954
368761,34.6954
368762,34.6954
368763,34.6954
368764,34.6954
368766,34.6954
368767,34.6954
368768,34.6954
368769,34.6954
368770,34.6954
368771,34.6954
368772,34.6954
368773,34.6954
368774,34.6954
368775,34.6954
368776,34.6954
369556,34.4563
368777,34.4563
368778,34.4563
368779,34.4563
368780,34.4563
368781,34.4563
368782,34.4563
368784,34.4563
368785,34.4563
368786,34.4563
368788,34.4563
368789,34.4563
368790,34.4563
368791,34.4563
368792,34.4563
368793,34.4563
368794,34.4563
368795,34.4563
368797,34.4563
368826,34.4563
368827,34.4563
368828,34.4563
368830,34.4563
368831,34.4563
368833,34.4563
368834,34.4563
368835,34.4563
368836,34.4563
368837,34.4563
368838,34.4563
368839,34.4563
368843,34.4563
368844,34.4563
368846,34.4563
368847,34.4563
368848,34.4563
368849,34.4563
368850,34.4563
368852,34.4563
368853,34.4563
368856,34.4563
368857,34.4563
368858,34.4563
368859,34.4563
368860,34.4563
368863,34.4563
368864,34.4563
368865,34.4563
368866,34.4563
368867,34.4563
368868,34.4563
368869,34.4563
368873,34.4563
368877,34.4563
368878,34.4563
368879,34.4563
368885,34.4563
369096,34.4563
369097,34.4563
369099,34.4563
369104,34.4563
369111,34.4563
369121,34.4563
369623,34.4563
369625,34.4563
369626,34.4563
369627,34.4563
369630,34.4563
369631,34.4563
369632,34.4563
369633,34.4563
369634,34.4563
369636,34.4563
369639,34.4563
369640,34.4563
369642,34.4563
369643,34.4563
369644,34.4563
369645,34.4563
369646,34.4563
369647,34.4563
369648,34.4563
369649,34.4563
369650,34.4563
369651,34.4563
369652,34.4563
369653,34.4563
369654,34.4563
369655,34.4563
369657,34.4563
369678,34.5515
369679,34.5515
369680,34.5515
369681,34.5515
369686,34.5515
369687,34.5515
369688,34.5515
369689,34.5515
369690,34.5515
369691,34.5515
369692,34.5515
369693,34.5515
369696,34.5515
369697,34.5515
369700,34.5515
369701,34.5515
369702,34.5515
369703,34.5515
369704,34.5515
369705,34.5515
369706,34.5515
369707,34.5515
369708,34.5515
369709,34.5515
369710,34.5515
369711,34.5515
369712,34.5515
369713,34.5515
369714,34.5515
369715,34.5515
369716,34.5515
369717,34.5515
369718,34.5515
369719,34.5515
369720,34.5515
369721,34.5515
369722,34.5515
369755,34.5515
369756,34.5515
369757,34.5515
369758,34.5515
369760,34.5515
369761,34.5515
369762,34.5515
369763,34.5515
369764,34.5515
369765,34.5515
369766,34.5515
369767,34.5515
369768,34.5515
369769,34.5515
369770,34.5515
369771,34.5515
369772,34.5515
369773,34.5515
369774,34.5515
369775,34.5515
369776,34.5515
369777,34.5515
369778,34.5515
369780,34.5515
369782,34.5515
369783,34.5515
369784,34.5515
369785,34.5515
369786,34.5515
369787,34.5515
369788,34.5515
369789,34.5515
369791,34.5515
369793,34.5515
369794,34.5515
369795,34.5515
369796,34.5515
369797,34.5515
369798,34.5515
370607,34.5515
370608,34.5515
370609,34.5515
370610,34.5515
370611,34.5515
370613,34.5515
370614,34.5515
370615,34.5515
370616,34.5515
370617,34.5515
370618,34.5515
370619,34.5515
370620,34.5515
370621,34.5515
370622,34.5515
370623,34.5515
370624,34.5515
370625,34.5515
370628,34.5515
370630,34.5515
370631,34.5515
370632,34.5515
370633,34.5515
370635,34.5515
370662,34.5515
370670,34.5515
370833,34.4899
370834,34.4899
371021,34.4899
371023,34.4899
370742,34.4899
370743,34.4899
370751,34.4899
370752,34.4899
370753,34.4899
370830,34.4899
370831,34.4899
371018,34.4899
371025,34.4899
371026,34.4899
371027,34.4899
371028,34.4899
371029,34.4899
371030,34.4899
371031,34.4899
371032,34.4899
371033,34.4899
371034,34.4899
371035,34.4899
371037,34.4899
371038,34.4899
371043,34.4899
371045,34.4899
371046,34.4899
371147,34.4899
371148,34.4899
371151,34.4899
371395,34.4899
371671,34.4899
371674,34.4899
371677,34.4899
371682,34.4899
371687,34.4899
371691,34.4899
371696,34.4899
371698,34.4899
371699,34.4899
371702,34.4899
371706,34.4899
371709,34.4899
371713,34.4899
371720,34.4899
371728,34.4899
371733,34.4899
371736,34.4899
371742,34.4899
371747,34.4899
371751,34.4899
371993,34.4899
371997,34.4899
371999,34.4899
372000,34.4899
372001,34.4899
372002,34.4899
372003,34.4899
372004,34.4899
372005,34.4899
372006,34.4899
372007,34.4899
372008,34.4899
372009,34.4899
372010,34.4899
372011,34.4899
372012,34.4899
372013,34.4899
372014,34.4899
372016,34.4899
372017,34.4899
372018,34.4899
372019,34.4899
372021,34.4899
372022,34.4899
372023,34.4899
372024,34.4899
372025,34.4899
372026,34.4899
372027,34.4899
372028,34.4899
372029,34.4899
372030,34.4899
372031,34.4899
372042,34.4899
372043,34.4899
372044,34.4899
372045,34.4899
372047,34.5429
372048,34.5429
372049,34.5429
372050,34.5429
372051,34.5429
372052,34.5429
372053,34.5429
372054,34.5429
372055,34.5429
372056,34.5429
372065,34.5429
372066,34.5429
372067,34.5429
372068,34.5429
372069,34.5429
372070,34.5429
372071,34.5429
372072,34.5429
372073,34.5429
372074,34.5429
372075,34.5429
372076,34.5429
372151,34.5429
372153,34.5429
372155,34.5429
372156,34.5429
372159,34.5429
372418,34.5429
372423,34.5429
372425,34.5429
372426,34.5429
372427,34.5429
372428,34.5429
372429,34.5429
372530,34.5429
372531,34.5429
372633,34.5429
372639,34.5429
372640,34.5429
372642,34.5429
372643,34.5429
372645,34.5429
372646,34.5429
372648,34.5429
372657,34.5429
372658,34.5429
372809,34.5429
372810,34.5429
372812,34.5429
372813,34.5429
372814,34.5429
372815,34.5429
372816,34.5429
372817,34.5429
372818,34.5429
372821,34.5429
372822,34.5429
372823,34.5429
372824,34.5429
372825,34.5429
372826,34.5429
372846,34.5429
372847,34.5429
372848,34.5429
372850,34.5429
372851,34.5429
372852,34.5429
372854,34.5429
372855,34.5429
372856,34.5429
372857,34.5429
372858,34.5429
372859,34.5429
372860,34.5429
372861,34.5429
372862,34.5429
372863,34.5429
372864,34.5429
372865,34.5429
372867,34.5429
372868,34.5429
372869,34.5429
372870,34.5429
372871,34.5429
372872,34.5429
372873,34.5429
372883,34.5429
372885,34.5429
372886,34.5429
372887,34.5429
372888,34.5429
372889,34.5429
372890,34.5429
372891,34.5429
372892,34.5429
372893,34.5429
372904,34.585
372905,34.585
372906,34.585
372907,34.585
372908,34.585
372909,34.585
372910,34.585
372911,34.585
372912,34.585
372913,34.585
372914,34.585
372915,34.585
372916,34.585
372917,34.585
372918,34.585
372919,34.585
372920,34.585
372921,34.585
372922,34.585
372923,34.585
372984,34.585
372985,34.585
372986,34.585
372987,34.585
372988,34.585
372989,34.585
372990,34.585
372991,34.585
372992,34.585
372993,34.585
372994,34.585
372995,34.585
372997,34.585
372998,34.585
372999,34.585
373000,34.585
373001,34.585
373002,34.585
373003,34.585
373004,34.585
373007,34.585
373008,34.585
373015,34.585
373017,34.585
373018,34.585
373019,34.585
373023,34.585
373027,34.585
373031,34.585
373032,34.585
373036,34.585
373037,34.585
373042,34.585
373043,34.585
373066,34.585
373067,34.585
373068,34.585
373069,34.585
373070,34.585
373071,34.585
373072,34.585
373073,34.585
373074,34.585
373075,34.585
373076,34.585
373077,34.585
373078,34.585
373079,34.585
373080,34.585
373081,34.585
373082,34.585
373083,34.585
373084,34.585
373085,34.585
373087,34.585
373393,34.585
373394,34.585
373395,34.585
373413,34.585
373554,34.585
373555,34.585
373557,34.585
373559,34.585
373562,34.585
373564,34.585
373565,34.585
373567,34.585
373569,34.585
373691,34.585
373793,34.585
373799,34.585
373801,34.585
373804,34.585
373807,34.585
373895,34.585
373897,34.585
373912,34.585
373914,34.585
373915,34.585
373917,34.585
373921,34.585
373922,34.585
373927,34.585
373928,34.585
373932,34.585
373933,34.585
373934,34.585
373936,34.585
373939,34.585
373941,34.585
373944,34.585
373946,34.585
373947,34.585
373948,34.585
373949,34.585
373950,34.585
373951,34.585
373952,34.585
373953,34.585
373954,34.585
373955,34.585
373956,34.585
373957,34.585
373959,34.585
373960,34.585
373961,34.585
373962,34.585
373963,34.585
373964,34.585
373965,34.585
373967,34.585
373968,34.585
373969,34.585
373970,34.585
373972,34.585
373973,34.585
373989,34.585
373990,34.585
373991,34.585
373992,34.585
373993,34.585
373994,34.585
373995,34.585
373996,34.585
373997,34.585
373998,34.585
374013,34.585
374014,34.585
374015,34.585
374016,34.585
374017,34.585
374018,34.585
374019,34.585
374020,34.585
374021,34.585
374022,34.585
374023,34.585
374026,34.585
374027,34.585
374028,34.585
374066,34.585
374381,34.5243
374383,34.5243
374388,34.5243
374391,34.5243
374392,34.5243
374393,34.5243
374395,34.5243
374396,34.5243
374398,34.5243
374399,34.5243
374501,34.5243
374502,34.5243
374504,34.5243
374509,34.5243
374510,34.5243
374512,34.5243
374515,34.5243
374517,34.5243
374520,34.5243
374523,34.5243
374525,34.5243
374529,34.5243
374533,34.5243
374536,34.5243
374538,34.5243
374542,34.5243
374543,34.5243
374546,34.5243
374547,34.5243
374548,34.5243
374551,34.5243
374553,34.5243
374554,34.5243
374558,34.5243
374664,34.5243
374671,34.5243
374674,34.5243
374675,34.5243
374678,34.5243
374683,34.5243
374735,34.5243
374736,34.5243
374788,34.5243
374791,34.5243
374794,34.5243
374799,34.5243
374801,34.5243
374806,34.5243
374807,34.5243
374812,34.5243
374813,34.5243
374818,34.5243
374821,34.5243
374864,34.5243
374865,34.5243
374866,34.5243
374867,34.5243
374868,34.5243
374869,34.5243
374870,34.5243
374871,34.5243
374872,34.5243
374873,34.5243
374874,34.5243
374875,34.5243
374876,34.5243
375126,34.5368
375127,34.5368
374881,34.5368
374882,34.5368
374883,34.5368
374884,34.5368
374885,34.5368
374886,34.5368
374887,34.5368
374888,34.5368
374889,34.5368
374890,34.5368
374891,34.5368
374892,34.5368
374893,34.5368
374895,34.5368
374917,34.5368
374918,34.5368
374919,34.5368
374920,34.5368
374921,34.5368
374922,34.5368
374923,34.5368
374924,34.5368
374925,34.5368
374926,34.5368
374927,34.5368
374928,34.5368
374929,34.5368
374931,34.5368
374932,34.5368
374933,34.5368
374934,34.5368
374936,34.5368
374937,34.5368
375164,34.5368
375203,34.5368
375207,34.5368
375209,34.5368
375211,34.5368
375212,34.5368
375214,34.5368
375220,34.5368
375221,34.5368
375222,34.5368
375223,34.5368
375224,34.5368
375225,34.5368
375228,34.5368
375231,34.5368
375232,34.5368
375235,34.5368
375240,34.5368
375241,34.5368
375244,34.5368
375245,34.5368
375261,34.5368
375978,34.5368
375980,34.5368
375983,34.5368
375985,34.5368
376027,34.5368
376028,34.5368
376029,34.5368
376030,34.5368
376031,34.5368
376032,34.5368
376033,34.5368
376034,34.5368
376035,34.5368
376036,34.5368
376037,34.5368
376038,34.5368
376039,34.5368
376040,34.5368
376041,34.5368
376042,34.5368
376043,34.5368
376044,34.5368
376045,34.5368
376046,34.5368
376047,34.5368
376048,34.5368
376595,34.593
376598,34.593
376603,34.593
376604,34.593
376605,34.593
376606,34.593
376608,34.593
376611,34.593
376614,34.593
376616,34.593
376618,34.593
376619,34.593
376621,34.593
376622,34.593
376623,34.593
376625,34.593
376627,34.593
376628,34.593
376629,34.593
376632,34.593
376972,34.593
376974,34.593
377076,34.593
377083,34.593
377188,34.593
377291,34.593
377294,34.593
377298,34.593
377300,34.593
377302,34.593
377303,34.593
377306,34.593
377309,34.593
377311,34.593
377416,34.593
377419,34.593
377420,34.593
377422,34.593
377426,34.593
377429,34.593
377432,34.593
377434,34.593
377437,34.593
377440,34.593
377441,34.593
377442,34.593
377446,34.593
377447,34.593
377450,34.593
377454,34.593
377457,34.593
377460,34.593
377462,34.593
377544,34.593
377545,34.593
377546,34.593
377547,34.593
377548,34.593
377552,34.593
377553,34.593
377554,34.593
377643,34.593
377644,34.593
377645,34.593
377646,34.593
377647,34.593
377648,34.593
377649,34.593
377650,34.593
377651,34.593
377652,34.593
377653,34.593
377654,34.593
377655,34.593
377656,34.593
377657,34.593
377658,34.593
377659,34.6587
377660,34.6587
378080,34.6587
378104,34.6587
378206,34.6587
378207,34.6587
378210,34.6587
378211,34.6587
378213,34.6587
378318,34.6587
378319,34.6587
378321,34.6587
378322,34.6587
378324,34.6587
378327,34.6587
378329,34.6587
378331,34.6587
378332,34.6587
378333,34.6587
378335,34.6587
378337,34.6587
378338,34.6587
378339,34.6587
378341,34.6587
378342,34.6587
378343,34.6587
378344,34.6587
378345,34.6587
378347,34.6587
378348,34.6587
378519,34.6587
378522,34.6587
378523,34.6587
378529,34.6587
378531,34.6587
378534,34.6587
378536,34.6587
378539,34.6587
378547,34.6587
378550,34.6587
378551,34.6587
378553,34.6587
378554,34.6587
378658,34.6587
378659,34.6587
378660,34.6587
378661,34.6587
378662,34.6587
378663,34.6587
378755,34.7852
378756,34.7852
378757,34.7852
378758,34.7852
378759,34.7852
378760,34.7852
378761,34.7852
378762,34.7852
378763,34.7852
378764,34.7852
378765,34.7852
378766,34.7852
378767,34.7852
378768,34.7852
378769,34.7852
378770,34.7852
378771,34.7852
378772,34.7852
378773,34.7852
378774,34.7852
378775,34.7852
378776,34.7852
378777,34.7852
378778,34.7852
378779,34.7852
378780,34.7852
379400,34.7852
380489,34.7852
380491,34.7852
380492,34.7852
380493,34.7852
380494,34.7852
380495,34.7852
380496,34.7852
380497,34.7852
380498,34.7852
380499,34.7852
380500,34.7852
380501,34.7852
380502,34.7852
380504,34.7852
380505,34.7852
380506,34.7852
380507,34.7852
380508,34.7852
380509,34.7852
380510,34.7852
380512,34.7852
380519,34.7099
380520,34.7099
380521,34.7099
380522,34.7099
380523,34.7099
380524,34.7099
380525,34.7099
380526,34.7099
380527,34.7099
380528,34.7099
380529,34.7099
380530,34.7099
380531,34.7099
380532,34.7099
380533,34.7099
380534,34.7099
380535,34.7099
380536,34.7099
380537,34.7099
380538,34.7099
380539,34.7099
380540,34.7099
380541,34.7099
380542,34.7099
380543,34.7099
380544,34.7099
380545,34.7099
380546,34.7099
380547,34.7099
380548,34.7099
380549,34.7099
380550,34.7099
380551,34.7099
380552,34.7099
380553,34.7099
380554,34.7099
380555,34.7099
380556,34.7099
380557,34.7099
380558,34.7099
380560,34.7099
380562,34.7099
380563,34.7099
380564,34.7099
380565,34.7099
380566,34.7099
380567,34.7099
380568,34.7099
380570,34.7099
380571,34.7099
380675,34.7099
380676,34.7099
380864,34.7099
380865,34.7099
380866,34.7099
380884,34.7099
380885,34.7099
380886,34.7099
380887,34.7099
380889,34.7099
380894,34.7099
380895,34.7099
380896,34.7099
380897,34.7099
380898,34.7099
380900,34.7099
381001,34.7099
381005,34.7099
381007,34.7099
381009,34.7099
381010,34.7099
381012,34.7099
381113,34.7099
381114,34.7099
381115,34.7099
381116,34.7099
381117,34.7099
381118,34.7099
381123,34.7099
381224,34.7099
381225,34.7099
381234,34.7099
381238,34.7099
381240,34.7099
381241,34.7099
381243,34.7099
381247,34.7099
381248,34.7099
381249,34.7099
381250,34.7099
381252,34.7099
381253,34.7099
381254,34.7099
381256,34.7099
381257,34.7099
381300,34.7099
381301,34.7099
381302,34.7099
381303,34.7099
381305,34.7099
381306,34.7099
381307,34.7099
381309,34.7099
381310,34.7099
381311,34.7099
381312,34.7099
381313,34.7099
381315,34.7099
381316,34.7099
381317,34.7099
381319,34.7099
381320,34.7099
381321,34.7099
381322,34.7099
381324,34.7099
381326,34.7099
381327,34.7099
381328,34.7099
381329,34.7099
381331,34.7099
381334,34.7099
381339,34.7099
381340,34.7099
381342,34.7099
381344,34.7099
382419,34.6112
381375,34.6112
381376,34.6112
381377,34.6112
381378,34.6112
381379,34.6112
381380,34.6112
381381,34.6112
381382,34.6112
381383,34.6112
381384,34.6112
381385,34.6112
381386,34.6112
381387,34.6112
381388,34.6112
381389,34.6112
381390,34.6112
381391,34.6112
381392,34.6112
381393,34.6112
381394,34.6112
381395,34.6112
381396,34.6112
381397,34.6112
381398,34.6112
381399,34.6112
381400,34.6112
381401,34.6112
381402,34.6112
381403,34.6112
381404,34.6112
381405,34.6112
381406,34.6112
381407,34.6112
381408,34.6112
381409,34.6112
381411,34.6112
381412,34.6112
381413,34.6112
381626,34.6112
381642,34.6112
381643,34.6112
381654,34.6112
381655,34.6112
381690,34.6112
381692,34.6112
381695,34.6112
381698,34.6112
381699,34.6112
381701,34.6112
381704,34.6112
381707,34.6112
381712,34.6112
381713,34.6112
381716,34.6112
381717,34.6112
381718,34.6112
381722,34.6112
381726,34.6112
381728,34.6112
381731,34.6112
381734,34.6112
381736,34.6112
381737,34.6112
381738,34.6112
381739,34.6112
381741,34.6112
381742,34.6112
381769,34.6112
381770,34.6112
381771,34.6112
381773,34.6112
381775,34.6112
381776,34.6112
382288,34.6112
382290,34.6112
382292,34.6112
382295,34.6112
382298,34.6112
382301,34.6112
382305,34.6112
382307,34.6112
382309,34.6112
382310,34.6112
382311,34.6112
382312,34.6112
382313,34.6112
382314,34.6112
382317,34.6112
382318,34.6112
382321,34.6112
382323,34.6112
382324,34.6112
382330,34.6112
382331,34.6112
382333,34.6112
382334,34.6112
382337,34.6112
382340,34.6112
382341,34.6112
382342,34.6112
382343,34.6112
382344,34.6112
382348,34.6112
382350,34.6112
382354,34.6112
382358,34.6112
382363,34.6112
382364,34.6112
382366,34.6112
382420,34.6112
382421,34.6112
382422,34.6112
382423,34.6112
382424,34.7503
382425,34.7503
382426,34.7503
382427,34.7503
382428,34.7503
382429,34.7503
382430,34.7503
382431,34.7503
382432,34.7503
382433,34.7503
382435,34.7503
382436,34.7503
382437,34.7503
382438,34.7503
382439,34.7503
382441,34.7503
382442,34.7503
382443,34.7503
382444,34.7503
382445,34.7503
382446,34.7503
382447,34.7503
382448,34.7503
382449,34.7503
382450,34.7503
382451,34.7503
382452,34.7503
382455,34.7503
382456,34.7503
382457,34.7503
382458,34.7503
382459,34.7503
382460,34.7503
382461,34.7503
382465,34.7503
382470,34.7503
382471,34.7503
382472,34.7503
382473,34.7503
382633,34.7503
382648,34.7503
382731,34.7503
382732,34.7503
382872,34.7503
382982,34.7503
382984,34.7503
382986,34.7503
383090,34.7503
383095,34.7503
383096,34.7503
383097,34.7503
383099,34.7503
383102,34.7503
383110,34.7503
383113,34.7503
383117,34.7503
383123,34.7503
383128,34.7503
383131,34.7503
383133,34.7503
383135,34.7503
383182,34.7503
383183,34.7503
383184,34.7503
383185,34.7503
383191,34.7503
383192,34.7503
383193,34.7503
383194,34.7503
383196,34.7503
383197,34.7503
383198,34.7503
383199,34.7503
383201,34.7503
383204,34.7503
383206,34.7503
383207,34.7503
383208,34.7503
383209,34.7503
383310,34.7503
383311,34.7503
383312,34.7503
383313,34.7503
383315,34.7503
383316,34.7503
383317,34.7503
383319,34.7503
383320,34.7503
383321,34.7503
383322,34.7503
383323,34.7503
383324,34.7503
383325,34.7503
383328,34.7503
383330,34.7503
383331,34.7503
383361,34.7503
383362,34.7503
383363,34.7503
383364,34.7503
383365,34.7503
383366,34.7503
383367,34.7503
383369,34.7503
383370,34.7503
383371,34.7503
383372,34.7503
383373,34.7503
383376,34.7503
383377,34.7503
383378,34.7503
383379,34.7503
383380,34.7503
383381,34.7503
383382,34.7503
383383,34.7503
383384,34.7503
383385,34.7503
383386,34.7503
383387,34.7503
383388,34.7503
383389,34.7503
383390,34.7503
383391,34.7503
383392,34.7739
383393,34.7739
383394,34.7739
383395,34.7739
383396,34.7739
383397,34.7739
383398,34.7739
383399,34.7739
383400,34.7739
383401,34.7739
383402,34.7739
383403,34.7739
383404,34.7739
383405,34.7739
383406,34.7739
383407,34.7739
383408,34.7739
383409,34.7739
383410,34.7739
383411,34.7739
383412,34.7739
383413,34.7739
383414,34.7739
383415,34.7739
383416,34.7739
383417,34.7739
383418,34.7739
383419,34.7739
383420,34.7739
383421,34.7739
383422,34.7739
383423,34.7739
383424,34.7739
383425,34.7739
383426,34.7739
383427,34.7739
383428,34.7739
383450,34.7739
383452,34.7739
383455,34.7739
383457,34.7739
383458,34.7739
383459,34.7739
383460,34.7739
383462,34.7739
383464,34.7739
383466,34.7739
383469,34.7739
383470,34.7739
383471,34.7739
383472,34.7739
383473,34.7739
383475,34.7739
383476,34.7739
383477,34.7739
383478,34.7739
383479,34.7739
383480,34.7739
383482,34.7739
383492,34.7739
383493,34.7739
383494,34.7739
383495,34.7739
383496,34.7739
383499,34.7739
383500,34.7739
383501,34.7739
383502,34.7739
383503,34.7739
383504,34.7739
383505,34.7739
383506,34.7739
383507,34.7739
383508,34.7739
383509,34.7739
383510,34.7739
383511,34.7739
383512,34.7739
383513,34.7739
383514,34.7739
383515,34.7739
383516,34.7739
383517,34.7739
383518,34.7739
384681,34.7739
384038,34.7739
384039,34.7739
384041,34.7739
384044,34.7739
384046,34.7739
384105,34.7739
384108,34.7739
384109,34.7739
384110,34.7739
384111,34.7739
384116,34.7739
384121,34.7739
384122,34.7739
384128,34.7739
384129,34.7739
384130,34.7739
384131,34.7739
384234,34.7739
384237,34.7739
384238,34.7739
384240,34.7739
384241,34.7739
384243,34.7739
384245,34.7739
384246,34.7739
384247,34.7739
384250,34.7739
384251,34.7739
384648,34.7739
384649,34.7739
384651,34.7739
384669,34.7739
384671,34.7739
384673,34.7739
384674,34.7739
384675,34.7739
384679,34.7739
384683,34.7739
384684,34.7739
384685,34.7739
384686,34.7739
384702,34.7739
384703,34.7739
384705,34.7739
384706,34.7739
384707,34.7739
384709,34.7739
384710,34.7739
384724,34.7739
384725,34.7739
384726,34.7739
384728,34.7739
384729,34.7739
384730,34.7739
384731,34.7739
384732,34.7739
384733,34.7739
384734,34.7739
384736,34.7739
384737,34.7739
384738,34.7739
384739,34.7739
384740,34.7739
384741,34.7739
384742,34.7739
384743,34.7739
385375,34.8253
385381,34.8253
385487,34.8253
385490,34.8253
385504,34.8253
385506,34.8253
385508,34.8253
385510,34.8253
385651,34.8253
385652,34.8253
385653,34.8253
385663,34.8253
385666,34.8253
385669,34.8253
385672,34.8253
385674,34.8253
385680,34.8253
385682,34.8253
385685,34.8253
385689,34.8253
385706,34.8253
385709,34.8253
385713,34.8253
385719,34.8253
385721,34.8253
385722,34.8253
385724,34.8253
385725,34.8253
385728,34.8253
385729,34.8253
385731,34.8253
385734,34.8253
385736,34.8253
385739,34.8253
385741,34.8253
385750,34.8253
385752,34.8253
385755,34.8253
385756,34.8253
385757,34.8253
385758,34.8253
385760,34.8253
385762,34.8253
385763,34.8253
385771,34.8253
385772,34.8253
385881,34.8528
385882,34.8528
385883,34.8528
385884,34.8528
385885,34.8528
385886,34.8528
385887,34.8528
385888,34.8528
385889,34.8528
385890,34.8528
385891,34.8528
385892,34.8528
385893,34.8528
385894,34.8528
385895,34.8528
385896,34.8528
385898,34.8528
385899,34.8528
385900,34.8528
385901,34.8528
385902,34.8528
386145,34.8528
386147,34.8528
386148,34.8528
386149,34.8528
386150,34.8528
386151,34.8528
386152,34.8528
386153,34.8528
386254,34.8528
386255,34.8528
386256,34.8528
386257,34.8528
386258,34.8528
386259,34.8528
386260,34.8528
386261,34.8528
386263,34.8528
386264,34.8528
386265,34.8528
386266,34.8528
386267,34.8528
386276,34.8528
386483,34.8528
386484,34.8528
386486,34.8528
386487,34.8528
386490,34.8528
386491,34.8528
386492,34.8528
386493,34.8528
386494,34.8528
386495,34.8528
386496,34.8528
386498,34.8528
386499,34.8528
386500,34.8528
386501,34.8528
386502,34.8528
386503,34.8528
386504,34.8528
386505,34.8528
386507,34.8528
386663,34.8528
386665,34.8528
386667,34.8528
386668,34.8528
386669,34.8528
386670,34.8528
386671,34.8528
386672,34.8528
386673,34.8528
386675,34.8528
386676,34.8528
386677,34.8528
386678,34.8528
386679,34.8528
386680,34.8528
386681,34.8528
386682,34.8528
386683,34.8528
387021,34.8528
387139,34.8528
387140,34.8528
387141,34.8528
387142,34.8528
387143,34.8528
387145,34.8528
387146,34.8528
387148,34.8528
387149,34.8528
387150,34.8528
387151,34.8528
387153,34.8528
387154,34.8528
387157,34.8528
387158,34.8528
387159,34.8528
387161,34.8528
387162,34.8528
387164,34.8528
387406,34.8528
387509,34.8528
387511,34.8528
387560,34.8528
387561,34.8528
387672,34.8528
387673,34.8528
387702,34.8528
387703,34.8528
387704,34.8528
387705,34.8528
387706,34.8528
387707,34.8528
387708,34.8528
387709,34.8528
387710,34.8528
387711,34.8528
387712,34.8528
387713,34.8528
387714,34.8528
387721,34.9575
387722,34.9575
387724,34.9575
387725,34.9575
387726,34.9575
387727,34.9575
387728,34.9575
387730,34.9575
387732,34.9575
387733,34.9575
387734,34.9575
387735,34.9575
387736,34.9575
387737,34.9575
387739,34.9575
387740,34.9575
387741,34.9575
387742,34.9575
387744,34.9575
387745,34.9575
387746,34.9575
387747,34.9575
387748,34.9575
387749,34.9575
387750,34.9575
387751,34.9575
387752,34.9575
387754,34.9575
387757,34.9575
387787,34.9575
387790,34.9575
387981,34.9575
388307,34.9575
388417,34.9575
388419,34.9575
388423,34.9575
388424,34.9575
388426,34.9575
388428,34.9575
388432,34.9575
388436,34.9575
388442,34.9575
388446,34.9575
388453,34.9575
388454,34.9575
388672,34.9575
388673,34.9575
388674,34.9575
388675,34.9575
388678,34.9575
388680,34.9575
388682,34.9575
388683,34.9575
388684,34.9575
388685,34.9575
388687,34.9575
388689,34.9575
388690,34.9575
388696,34.9575
388701,34.9575
388705,34.9575
388708,34.9575
388712,34.9575
388713,34.9575
388715,34.9575
388818,34.9575
388820,34.9575
388821,34.9575
388825,34.9575
388826,34.9575
388831,34.9575
388833,34.9575
388918,34.9575
388935,34.9575
388936,34.9575
388938,34.9575
388940,34.9575
388941,34.9575
388942,34.9575
388943,34.9575
388944,34.9575
388945,34.9575
388946,34.9575
388947,34.9575
388948,34.9575
388950,34.9575
388951,34.9575
388952,34.9575
388953,34.9575
388954,34.9575
388955,34.9575
389015,34.8885
389016,34.8885
389017,34.8885
389018,34.8885
389019,34.8885
389020,34.8885
389021,34.8885
389022,34.8885
389023,34.8885
389024,34.8885
389025,34.8885
389026,34.8885
389027,34.8885
389028,34.8885
389029,34.8885
389030,34.8885
389031,34.8885
389032,34.8885
389135,34.8885
389136,34.8885
389137,34.8885
389138,34.8885
389139,34.8885
389140,34.8885
389141,34.8885
389142,34.8885
389143,34.8885
389144,34.8885
389145,34.8885
389146,34.8885
389147,34.8885
389148,34.8885
389149,34.8885
389150,34.8885
389151,34.8885
389152,34.8885
389384,34.8885
389643,34.8885
389645,34.8885
389649,34.8885
389652,34.8885
389654,34.8885
389977,34.8885
390082,34.8885
390085,34.8885
390087,34.8885
390089,34.8885
390094,34.8885
390100,34.8885
390103,34.8885
390106,34.8885
390108,34.8885
390109,34.8885
390110,34.8885
390112,34.8885
390113,34.8885
390114,34.8885
390115,34.8885
390116,34.8885
390117,34.8885
390120,34.8885
390123,34.8885
390218,34.8885
390220,34.8885
390221,34.8885
390222,34.8885
390223,34.8885
390224,34.8885
390225,34.8885
390227,34.8885
390229,34.8885
390230,34.8885
390231,34.8885
390232,34.8885
390233,34.8885
390234,34.8885
390235,34.8885
390236,34.8885
390237,34.8885
390238,34.8885
390240,34.8885
390241,34.8885
390538,34.7891
390539,34.7891
390540,34.7891
390541,34.7891
390542,34.7891
390543,34.7891
390544,34.7891
390545,34.7891
390547,34.7891
390548,34.7891
390549,34.7891
390550,34.7891
390551,34.7891
390553,34.7891
390554,34.7891
390556,34.7891
390557,34.7891
390558,34.7891
390560,34.7891
390561,34.7891
390563,34.7891
391099,34.7891
391100,34.7891
391101,34.7891
391102,34.7891
391103,34.7891
391104,34.7891
391105,34.7891
391106,34.7891
391107,34.7891
391108,34.7891
391109,34.7891
391110,34.7891
391111,34.7891
391112,34.7891
391113,34.7891
391114,34.7891
391115,34.7891
391117,34.7891
391118,34.7891
391119,34.7891
391120,34.7891
391121,34.7891
391122,34.7891
391123,34.7891
391125,34.7891
391126,34.7891
391128,34.7891
391130,34.7891
391131,34.7891
391132,34.7891
391133,34.7891
391134,34.7891
391135,34.7891
391136,34.7891
391137,34.7891
391138,34.7891
391139,34.7891
391140,34.7891
391141,34.7891
391142,34.7891
391143,34.7891
391144,34.7891
391147,34.7891
391148,34.6497
391149,34.6497
391150,34.6497
391151,34.6497
391152,34.6497
391154,34.6497
391155,34.6497
391158,34.6497
391159,34.6497
391160,34.6497
391161,34.6497
391162,34.6497
391163,34.6497
391164,34.6497
391165,34.6497
391166,34.6497
391167,34.6497
391168,34.6497
391169,34.6497
391170,34.6497
391171,34.6497
391172,34.6497
391174,34.6497
391175,34.6497
391484,34.6497
391486,34.6497
391487,34.6497
391490,34.6497
391492,34.6497
391493,34.6497
391494,34.6497
391497,34.6497
391500,34.6497
391501,34.6497
391504,34.6497
391507,34.6497
391509,34.6497
391512,34.6497
391513,34.6497
391515,34.6497
391517,34.6497
391519,34.6497
391521,34.6497
391524,34.6497
391525,34.6497
391528,34.6497
391662,34.6497
392564,34.6472
392568,34.6472
393444,34.6472
393446,34.6472
393447,34.6472
393448,34.6472
393449,34.6472
393451,34.6472
393452,34.6472
393554,34.6472
393556,34.6472
393558,34.6472
393661,34.6472
393762,34.6472
393763,34.6472
393764,34.6472
393765,34.6472
393769,34.6472
393772,34.6472
393773,34.6472
393776,34.6472
393778,34.6472
393779,34.6472
393882,34.6472
393883,34.6472
393884,34.6472
393990,34.6472
394094,34.6472
394096,34.6472
394532,34.6472
394651,34.6472
394652,34.6472
394731,34.6472
394732,34.6472
394884,34.6472
394885,34.6472
394886,34.6472
394887,34.6472
394888,34.6472
394889,34.6472
394890,34.6472
394891,34.6472
394892,34.6472
394894,34.6472
394895,34.6472
394897,34.6472
394900,34.6472
394903,34.6472
394904,34.6472
394905,34.6677
394906,34.6677
394907,34.6677
394908,34.6677
394909,34.6677
394910,34.6677
394911,34.6677
394912,34.6677
394913,34.6677
394914,34.6677
394915,34.6677
394916,34.6677
394918,34.6677
394919,34.6677
394924,34.6677
394925,34.6677
394926,34.6677
394927,34.6677
394928,34.6677
394929,34.6677
394930,34.6677
394931,34.6677
394932,34.6677
394933,34.6677
394934,34.6677
394935,34.6677
394937,34.6677
394938,34.6677
394939,34.6677
394940,34.6677
394941,34.6677
394942,34.6677
394943,34.6677
394945,34.6677
394946,34.6677
394947,34.6677
394948,34.6677
394949,34.6677
394950,34.6677
394951,34.6677
394952,34.6677
394953,34.6677
394954,34.6677
394955,34.6677
394957,34.6677
394958,34.6677
394959,34.6677
394960,34.6677
394961,34.6677
395852,34.6677
395852,34.6677
395852,34.6677
395852,34.6677
395852,34.6677
395852,34.6677
395852,34.6677
395852,34.6677
395852,34.6677
395852,34.6677
395852,34.6677
395852,34.6677
395852,34.6677
395852,34.6677
395852,34.6677
395852,34.6677
395852,34.6677
395852,34.6677
395852,34.6677
395852,34.6677
395852,34.6677
395852,34.6677
395852,34.6677
395852,34.6677
395852,34.6677
395852,34.6677
395852,34.6677
395852,34.6677
395852,34.6677
395852,34.6677
395852,34.6677
395852,34.6677
395852,34.6677
395852,34.6677
395852,34.6677
395852,34.6677
395852,34.6677
395852,34.6677
395852,34.6677
395852,34.6677
395852,34.6677
395852,34.6677
395852,34.6677
395852,34.6677
395852,34.6677
395852,34.6677
395852,34.6677
395852,34.6677
395852,34.6677
395852,34.6677
395852,34.6677
395852,34.6677
395852,34.6677
395852,34.6677
395852,34.6677
395852,34.6677
395852,34.6677
395852,34.6677
395852,34.6677
395852,34.6677
395852,34.6677
395852,34.6677
395852,34.6677
395852,34.6677
395852,34.6677
395852,34.6677
395852,34.6677
395852,34.6677
395852,34.6677
395852,34.6677
395852,34.6677
395852,34.6677
395852,34.6677
395852,34.6677
395852,34.6677
395852,34.6677
395852,34.6677
395852,34.6677
395852,34.6677
395852,34.6677
395852,34.6677
395852,34.6677
395852,34.6677
395852,34.6677
395852,34.6677
395852,34.6677
395852,34.6677
395852,34.6677
395852,34.6677
395852,34.6677
395852,34.6677
